"0","confPerSubj = group_by(data_conf_all, Subject, Noise, CorrectFactor) %>% "
"0","  summarize(MeanConf = mean(ConfRatings))"
"2","`summarise()` has grouped output by 'Subject', 'Noise'. You can override using the `.groups` argument.
"
"0","dodge <- position_dodge(width = 0.7)"
"0","confPlot = ggplot(confPerSubj, aes(x=Noise, y=MeanConf)) +"
"0","  geom_violin(aes(fill=CorrectFactor:Noise, alpha=CorrectFactor), trim=FALSE, position=dodge) +"
"0","  geom_boxplot(aes(x=Noise, y=MeanConf, fill=CorrectFactor:Noise, alpha=CorrectFactor),width=0.1, position=dodge, show.legend=FALSE)+  "
"0","  scale_fill_manual(values = c(colorblind.palette.2[1],"
"0","                               colorblind.palette.2[2],"
"0","                               colorblind.palette.2[1],"
"0","                               colorblind.palette.2[2])) +"
"0","  guides(fill = FALSE) + "
"0","  scale_alpha_manual(values = c(0.2,1)) +"
"0","  labs(x=""Noise"", y=""Confidence"", alpha=""Accuracy"") +"
"0","  theme(axis.ticks.x = element_blank(), "
"0","        axis.title = element_text(size = rel(1.8)),"
"0","        axis.text = element_text(size = rel(1.8)),"
"0","        legend.title = element_text(size = rel(1.8)),"
"0","        legend.text = element_text(size=rel(1.8))) +"
"0","  scale_y_discrete(limits = c('1','2','3','4','5','6'))"
